kable/4_scope.csv

#Digilent WaveForms Oscilloscope Acquisition
#Device Name: Discovery2
#Serial Number: SN:210321B2E07B
#Date Time: 2024-12-03 12:34:35.718
#Sample rate: 819672Hz
#Samples: 8192
#Trigger: Source: Channel 1 Type: Edge Condition: Rising Level: 0 V Hyst.: Auto HoldOff: 0 s
#Channel 1: Range: 50 mV/div Offset: 0 V Sample Mode: Average
#Channel 2: Range: 2 V/div Offset: -8.55 V Sample Mode: Average

Time (s),Channel 1 (V),Channel 2 (V)
-0.009845156775724924,0.08251110731114432,6.743961907247046
-0.009843936775724925,0.08251110731114432,6.736454464943505
-0.009842716775724923,0.08284963747824185,6.725193301488188
-0.009841496775724923,0.08318816764533972,6.717685859184647
-0.009840276775724924,0.08420375814663049,6.710178416881107
-0.009839056775724924,0.08420375814663079,6.695163532274039
-0.009837836775724924,0.08488081848082497,6.706424695729345
-0.009836616775724925,0.08386522797953372,6.698917253425807
-0.009835396775724925,0.08488081848082452,6.706424695729341
-0.009834176775724925,0.0865734693163096,6.687656089970511
-0.009832956775724926,0.08623493914921422,6.66888748421166
-0.009831736775724924,0.0852193486479222,6.691409811122264
-0.009830516775724924,0.08758905981760286,6.680148647666953
-0.009829296775724925,0.08758905981760286,6.665133763059879
-0.009828076775724923,0.08725052965050656,6.661380041908099
-0.009826856775724924,0.08826612015179763,6.657626320756327
-0.009825636775724924,0.08894318048599119,6.646365157301021
-0.009824416775724924,0.08758905981760286,6.646365157301021
-0.009823196775724925,0.08860465031889457,6.638857714997481
-0.009821976775724925,0.08860465031889457,6.657626320756323
-0.009820756775724925,0.09063583132147705,6.646365157301027
-0.009819536775724926,0.08962024082018721,6.638857714997489
-0.009818316775724924,0.09063583132147844,6.631350272693934
-0.009817096775724924,0.0916514218227697,6.616335388086861
-0.009815876775724925,0.09131289165567261,6.605074224631555
-0.009814656775724923,0.09165142182277,6.605074224631553
-0.009813436775724924,0.09198995198986677,6.608827945783322
-0.009812216775724924,0.09165142182277,6.612581666935094
-0.009810996775724924,0.09232848215696417,6.620089109238631
-0.009809776775724924,0.09198995198986692,6.60132050347978
-0.009808556775724925,0.09368260282535235,6.597566782328012
-0.009807336775724925,0.09232848215696478,6.601320503479778
-0.009806116775724925,0.0926670123240611,6.593813061176247
-0.009804896775724924,0.09300554249115894,6.608827945783315
-0.009803676775724924,0.09368260282535311,6.59756678232801
-0.009802456775724925,0.09469819332664482,6.590059340024469
-0.009801236775724923,0.09469819332664513,6.582551897720933
-0.009800016775724923,0.09503672349374268,6.586305618872689
-0.009798796775724924,0.09571378382793623,6.575044455417389
-0.009797576775724924,0.09503672349374237,6.575044455417391
-0.009796356775724924,0.09571378382793654,6.578798176569159
-0.009795136775724925,0.09605231399503361,6.571290734265622
-0.009793916775724925,0.0953752536608396,6.578798176569156
-0.009792696775724925,0.09639084416213008,6.575044455417393
-0.009791476775724926,0.09672937432922793,6.563783291962089
-0.009790256775724924,0.09605231399503376,6.567537013113848
-0.009789036775724924,0.09639084416213101,6.567537013113848
-0.009787816775724925,0.09571378382793684,6.575044455417386
-0.009786596775724923,0.09706790449632487,6.582551897720919
-0.009785376775724924,0.09639084416213177,6.571290734265618
-0.009784156775724924,0.09808349499761689,6.571290734265617
-0.009782936775724924,0.09740643466342272,6.567537013113848
-0.009781716775724925,0.09774496483051995,6.560029570810308
-0.009780496775724925,0.09774496483051995,6.575044455417382
-0.009779276775724925,0.09808349499761704,6.57129073426562
-0.009778056775724926,0.09842202516471411,6.563783291962086
-0.009776836775724924,0.09842202516471396,6.552522128506773
-0.009775616775724924,0.09740643466342272,6.563783291962078
-0.009774396775724925,0.09909908549890813,6.556275849658542
-0.009773176775724923,0.09842202516471442,6.563783291962086
-0.009771956775724924,0.09842202516471411,6.571290734265627
-0.009770736775724924,0.09774496483052071,6.59005934002446
-0.009769516775724924,0.09943761566600613,6.571290734265618
-0.009768296775724924,0.09943761566600613,6.575044455417389
-0.009767076775724925,0.09909908549890904,6.560029570810316
-0.009765856775724925,0.09977614583310307,6.575044455417382
-0.009764636775724925,0.0990990854989095,6.575044455417389
-0.009763416775724924,0.09977614583310337,6.57129073426562
-0.009762196775724924,0.09977614583310337,6.575044455417389
-0.009760976775724925,0.09943761566600613,6.575044455417389
-0.009759756775724923,0.09909908549890796,6.582551897720936
-0.009758536775724923,0.09808349499761843,6.590059340024473
-0.009757316775724924,0.09943761566600628,6.593813061176242
-0.009756096775724924,0.09977614583310322,6.59756678232801
-0.009754876775724924,0.09943761566600613,6.59756678232801
-0.009753656775724925,0.09977614583310322,6.593813061176242
-0.009752436775724925,0.0990990854989092,6.590059340024471
-0.009751216775724925,0.09842202516471503,6.597566782328003
-0.009749996775724926,0.0994376156660052,6.593813061176244
-0.009748776775724924,0.09943761566600613,6.612581666935091
-0.009747556775724925,0.09977614583310337,6.60507422463155
-0.009746336775724925,0.0990990854989092,6.608827945783318
-0.009745116775724923,0.09909908549890982,6.620089109238631
-0.009743896775724924,0.1001146760002003,6.620089109238629
-0.009742676775724924,0.09943761566600628,6.616335388086861
-0.009741456775724924,0.09977614583310337,6.616335388086861
-0.009740236775724925,0.1007917363343951,6.623842830390401
-0.009739016775724925,0.09977614583310383,6.623842830390401
-0.009737796775724925,0.09876055533181259,6.635103993845701
-0.009736576775724926,0.09909908549890858,6.646365157301011
-0.009735356775724924,0.09977614583310307,6.650118878452787
-0.009734136775724924,0.09909908549890889,6.638857714997481
-0.009732916775724925,0.09876055533181181,6.653872599604555
-0.009731696775724923,0.09842202516471503,6.657626320756339
-0.009730476775724924,0.09909908549890874,6.665133763059874
-0.009729256775724924,0.09876055533181242,6.668887484211641
-0.009728036775724924,0.1004532061672978,6.665133763059872
-0.009726816775724925,0.09808349499761719,6.665133763059872
-0.009725596775724925,0.09909908549890843,6.661380041908104
-0.009724376775724925,0.09740643466342348,6.69140981112225
-0.009723156775724925,0.09740643466342272,6.698917253425797
-0.009721936775724924,0.09808349499761734,6.70267097457757
-0.009720716775724924,0.09842202516471442,6.695163532274034
-0.009719496775724925,0.09876055533181166,6.695163532274034
-0.009718276775724923,0.09808349499761689,6.698917253425821
-0.009717056775724923,0.09774496483051841,6.717685859184668
-0.009715836775724924,0.09605231399503407,6.732700743791741
-0.009714616775724924,0.09672937432922823,6.743961907247046
-0.009713396775724924,0.09774496483051995,6.743961907247046
-0.009712176775724925,0.09639084416213162,6.747715628398814
-0.009710956775724925,0.09537525366083975,6.755223070702352
-0.009709736775724925,0.09571378382793623,6.758976791854122
-0.009708516775724926,0.09706790449632424,6.773991676461193
-0.009707296775724924,0.09571378382793654,6.773991676461207
-0.009706076775724925,0.09605231399503376,6.777745397612977
-0.009704856775724923,0.0953752536608396,6.777745397612987
-0.009703636775724923,0.09571378382793623,6.789006561068295
-0.009702416775724924,0.09537525366083899,6.796514003371835
-0.009701196775724924,0.09469819332664482,6.811528887978912
-0.009699976775724924,0.09469819332664482,6.819036330282449
-0.009698756775724925,0.09537525366083929,6.822790051434219
-0.009697536775724925,0.09435966315954804,6.826543772585987
-0.009696316775724925,0.09469819332664452,6.819036330282456
-0.009695096775724926,0.09402113299245096,6.830297493737748
-0.009693876775724924,0.09334407265825588,6.84906609949661
-0.009692656775724924,0.09300554249115864,6.856573541800151
-0.009691436775724925,0.09266701232406156,6.867834705255455
-0.009690216775724923,0.09402113299244881,6.864080984103694
-0.009688996775724924,0.09232848215696401,6.867834705255468
-0.009687776775724924,0.09198995198986662,6.882849589862541
-0.009686556775724924,0.09131289165567245,6.882849589862541
-0.009685336775724925,0.09198995198986692,6.909125637924932
-0.009684116775724925,0.09097436148857568,6.916633080228469
-0.009682896775724925,0.09063583132147814,6.931647964835546
-0.009681676775724925,0.09097436148857492,6.931647964835554
-0.009680456775724924,0.08928171065308935,6.939155407139092
-0.009679236775724924,0.08995877098728351,6.935401685987324
-0.009678016775724925,0.09063583132147798,6.957924012897944
-0.009676796775724923,0.08928171065308811,6.969185176353266
-0.009675576775724924,0.08826612015179763,6.980446339808576
-0.009674356775724924,0.08860465031889442,6.991707503263878
-0.009673136775724924,0.08826612015179733,6.995461224415646
-0.009671916775724924,0.08826612015179733,7.006722387870957
-0.009670696775724925,0.08758905981760316,7.002968666719187
-0.009669476775724925,0.08758905981760286,7.017983551326259
-0.009668256775724925,0.08623493914921515,7.029244714781567
-0.009667036775724926,0.08623493914921392,7.051767041692178
-0.009665816775724924,0.08589640898211667,7.063028205147509
-0.009664596775724925,0.08555787881501944,7.074289368602819
-0.009663376775724923,0.08488081848082404,7.074289368602832
-0.009662156775724923,0.08386522797953357,7.089304253209916
-0.009660936775724924,0.08420375814663064,7.108072858968749
-0.009659716775724924,0.08454228831372773,7.104319137816982
-0.009658496775724924,0.08454228831372773,7.10807285896875
-0.009657276775724925,0.08318816764533879,7.126841464727601
-0.009656056775724925,0.08318816764533879,7.126841464727601
-0.009654836775724925,0.08149551680985415,7.141856349334669
-0.009653616775724926,0.08115698664275567,7.164378676245282
-0.009652396775724924,0.08115698664275536,7.183147282004153
-0.009651176775724924,0.08047992630856089,7.190654724307693
-0.009649956775724925,0.08149551680985215,7.201915887762999
-0.009648736775724923,0.08014139614146366,7.209423330066544
-0.009647516775724924,0.0801413961414629,7.209423330066546
-0.009646296775724924,0.07844874530597733,7.213177051218326
-0.009645076775724924,0.07811021513888024,7.235699378128936
-0.009643856775724925,0.07777168497178301,7.261975426191326
-0.009642636775724925,0.07743315480468592,7.25446798388779
-0.009641416775724925,0.07743315480468577,7.280744031950166
-0.009640196775724925,0.07675609447049191,7.284497753101943
-0.009638976775724924,0.07574050396919928,7.292005195405491
-0.009637756775724924,0.07506344363500511,7.299512637709028
-0.009636536775724925,0.07472491346790788,7.314527522316109
-0.009635316775724923,0.0750634436350045,7.329542406923203
-0.009634096775724924,0.07438638330081034,7.344557291530283
-0.009632876775724924,0.07404785313371279,7.359572176137354
-0.009631656775724924,0.07269373246532446,7.367079618440891
-0.009630436775724924,0.07269373246532446,7.378340781896201
-0.009629216775724925,0.07269373246532446,7.385848224199738
-0.009627996775724925,0.07133961179693613,7.408370551110352
-0.009626776775724925,0.07201667213112938,7.415877993413895
-0.009625556775724926,0.07066255146274228,7.434646599172736
-0.009624336775724924,0.07066255146274104,7.434646599172753
-0.009623116775724925,0.0693084307943521,7.457168926083375
-0.009621896775724923,0.06896990062725486,7.464676368386922
-0.009620676775724923,0.06896990062725425,7.472183810690468
-0.009619456775724924,0.06829284029305978,7.487198695297544
-0.009618236775724924,0.06693871962467114,7.505967301056399
-0.009617016775724924,0.06626165929047696,7.535997070270548
-0.009615796775724925,0.06626165929047696,7.535997070270548
-0.009614576775724925,0.06456900845499156,7.543504512574084
-0.009613356775724925,0.06626165929047542,7.535997070270555
-0.009612136775724926,0.06287635761950769,7.566026839484681
-0.009610916775724924,0.06558459895628249,7.584795445243559
-0.009609696775724924,0.06355341795369908,7.607317772154181
-0.009608476775724925,0.06219929728531074,7.614825214457717
-0.009607256775724923,0.06152223695111565,7.618578935609511
-0.009606036775724924,0.06152223695111519,7.641101262520115
-0.009604816775724924,0.06050664644982349,7.648608704823664
-0.009603596775724924,0.05949105594853224,7.674884752886043
-0.009602376775724925,0.05779840511304606,7.697407079796664
-0.009601156775724925,0.0588139956143373,7.701160800948433
-0.009599936775724925,0.05949105594853193,7.701160800948434
-0.009598716775724925,0.05813693528014453,7.708668243251967
-0.009597496775724924,0.05678281461175434,7.72743684901083
-0.009596276775724924,0.05678281461175434,7.738698012466136
-0.009595056775724925,0.0554286939433654,7.757466618224987
-0.009593836775724923,0.05542869394336386,7.77248150283208
-0.009592616775724924,0.05373604310787983,7.787496387439161
-0.009591396775724924,0.05441310344207292,7.802511272046232
-0.009590176775724924,0.05272045260658752,7.810018714349768
-0.009588956775724924,0.05238192243949027,7.84004848356393
-0.009587736775724925,0.05102780177110195,7.847555925867466
-0.009586516775724925,0.05204339227239257,7.870078252778081
-0.009585296775724925,0.05136633193819918,7.873831973929858
-0.009584076775724926,0.05001221126981086,7.881339416233394
-0.009582856775724924,0.04899662076851791,7.896354300840482
-0.009581636775724925,0.04831956043432344,7.911369185447563
-0.009580416775724923,0.04730396993303265,7.933891512358197
-0.009579196775724923,0.04831956043432221,7.948906396965268
-0.009577976775724924,0.04696543976593419,7.952660118117046
-0.009576756775724924,0.04628837943173956,7.978936166179427
-0.009575536775724924,0.04527278893044831,7.982689887331196
-0.009574316775724925,0.04493425876335108,8.005212214241816
-0.009573096775724925,0.04324160792786567,8.012719656545354
-0.009571876775724925,0.04256454759367104,8.03148826230419
-0.009570656775724926,0.04290307776076735,8.050256868063041
-0.009569436775724924,0.04121042692528147,8.061518031518368
-0.009568216775724924,0.040533366591087,8.084040358428989
-0.009566996775724925,0.04121042692528117,8.087794079580759
-0.009565776775724923,0.03917924592269806,8.110316406491394
-0.009564556775724924,0.03917924592269775,8.12533129109846
-0.009563336775724924,0.03850218558850343,8.121577569946696
-0.009562116775724924,0.03816365542140635,8.132838733402002
-0.009560896775724925,0.03545541408462846,8.166622223767932
-0.009559676775724925,0.03511688391753137,8.177883387223238
-0.009558456775724925,0.03410129341623997,8.189144550678549
-0.009557236775724925,0.03477835375043337,8.215420598740922
-0.009556016775724924,0.03477835375043369,8.215420598740952
-0.009554796775724924,0.03410129341623951,8.230435483348025
-0.009553576775724925,0.03274717274785056,8.234189204499796
-0.009552356775724923,0.03240864258075211,8.260465252562208
-0.009551136775724924,0.03105452191236377,8.282987579472822
-0.009549916775724924,0.03037746157817037,8.298002464079898
-0.009548696775724924,0.03139305207946162,8.320524790990509
-0.009547476775724924,0.0293618710768782,8.33178595444582
-0.009546256775724925,0.02699215990719863,8.343047117901124
-0.009545036775724925,0.02665362974010047,8.369323165963509
-0.009543816775724925,0.02665362974010031,8.38058432941882
-0.009542596775724926,0.02631509957300338,8.395599214025898
-0.009541376775724924,0.0256380392388086,8.395599214025912
-0.009540156775724925,0.02496097890461413,8.410614098632992
-0.009538936775724923,0.02394538840332242,8.433136425543625
-0.009537716775724923,0.02394538840332119,8.444397588998939
-0.009536496775724924,0.02259126773493363,8.459412473606008
-0.009535276775724924,0.02292979790202994,8.46691991590955
-0.009534056775724924,0.02123714706654453,8.478181079364855
-0.009532836775724925,0.01920596606396203,8.493195963971928
-0.009531616775724925,0.01819037556266986,8.519472012034315
-0.009530396775724925,0.01852890572976633,8.538240617793161
-0.009529176775724926,0.01751331522847585,8.557009223552011
-0.009527956775724924,0.0181903755626694,8.568270387007338
-0.009526736775724924,0.01582066439298875,8.57577782931088
-0.009525516775724925,0.01548213422589167,8.598300156221489
-0.009524296775724923,0.01514360405879366,8.602053877373301
-0.009523076775724924,0.01446654372459934,8.635837367739205
-0.009521856775724924,0.01345095322330748,8.643344810042747
-0.009520636775724924,0.01209683255491915,8.654605973498052
-0.009519416775724925,0.01209683255491915,8.669620858105134
-0.009518196775724925,0.01141977222072499,8.688389463863976
-0.009516976775724925,0.009727121385239264,8.707158069622826
-0.009515756775724925,0.009727121385238494,8.718419233078134
-0.009514536775724924,0.01006565155233434,8.72217295422992
-0.009513316775724924,0.007018880048460603,8.733434117685226
-0.009512096775724925,0.007695940382654767,8.759710165747604
-0.009510876775724923,0.006003289547168278,8.774725050354718
-0.009509656775724924,0.005326229212973497,8.797247377265341
-0.009508436775724924,0.004310638711683174,8.823523425327709
-0.009507216775724924,0.005326229212974421,8.823523425327709
-0.009505996775724924,0.003295048210391003,8.838538309934791
-0.009504776775724925,0.002279457709099756,8.842292031086558
-0.009503556775724925,0.001940927542002211,8.853553194541865
-0.009502336775724925,0.0002482767065174151,8.872321800300703
-0.009501116775724924,-9.025346058136064e-05,8.883582963756041
-0.009499896775724924,-9.025346058136064e-05,8.902351569514883
-0.009498676775724925,-0.001444374128970306,8.917366454121963
-0.009497456775724923,-0.001782904296068774,8.932381338729058
-0.009496236775724923,-0.003137024964457104,8.947396223336138
-0.009495016775724924,-0.003814085298651577,8.962411107943211
-0.009493796775724924,-0.005168205967039906,8.977425992550289
-0.009492576775724924,-0.005168205967039906,8.984933434853826
-0.009491356775724925,-0.005845266301234071,9.003702040612668
-0.009490136775724925,-0.007199386969622708,9.026224367523287
-0.009488916775724925,-0.007537917136720252,9.041239252130364
-0.009487696775724926,-0.008553507638011347,9.063761579040978
-0.009486476775724924,-0.009569098139303978,9.067515300192769
-0.009485256775724924,-0.009569098139303978,9.075022742496309
-0.009484036775724925,-0.009569098139303978,9.090037627103383
-0.009482816775724923,-0.01058468864059723,9.105052511710484
-0.009481596775724924,-0.01227733947608233,9.120067396317562
-0.009480376775724924,-0.01329292997737358,9.142589723228177
-0.009479156775724924,-0.01329292997737358,9.153850886683482
-0.009477936775724925,-0.01464705064576252,9.161358328987022
-0.009476716775724925,-0.01430852047866544,9.183880655897633
-0.009475496775724925,-0.0160011713141507,9.187634377049411
-0.009474276775724925,-0.01769382214963611,9.213910425111782
-0.009473056775724924,-0.01803235231673458,9.240186473174193
-0.009471836775724924,-0.01735529198254042,9.232679030870656
-0.009470616775724925,-0.01972500315221999,9.247693915477729
-0.009469396775724923,-0.01972500315222199,9.266462521236594
-0.009468176775724924,-0.02074059365351309,9.273969963540136
-0.009466956775724924,-0.02141765398770771,9.29273856929899
-0.009465736775724924,-0.02243324448899896,9.319014617361368
-0.009464516775724924,-0.02175618415480449,9.32652205966491
-0.009463296775724925,-0.02243324448899865,9.322768338513141
-0.009462076775724925,-0.02412589532448437,9.330275780816676
-0.009460856775724925,-0.024802955658679,9.349044386575512
-0.009459636775724924,-0.02615707632706887,9.375320434637921
-0.009458416775724924,-0.02683413666126303,9.375320434637921
-0.009457196775724925,-0.02751119699545751,9.394089040396771
-0.009455976775724923,-0.0281882573296529,9.416611367307404
-0.009454756775724923,-0.029203847830944,9.427872530762718
-0.009453536775724924,-0.02954237799804061,9.442887415369785
-0.009452316775724924,-0.02886531766384707,9.446641136521558
-0.009451096775724924,-0.0302194383322354,9.454148578825095
-0.009449876775724925,-0.03191208916772081,9.480424626887473
