kable/cw4a.csv

#Digilent WaveForms Oscilloscope Acquisition
#Device Name: Discovery2
#Serial Number: SN:210321B211C7
#Date Time: 2024-12-03 12:32:00.826
#Sample rate: 7.69231e+06Hz
#Samples: 8192
#Trigger: Source: Channel 1 Type: Edge Condition: Rising Level: 0 V Hyst.: Auto HoldOff: 0 s
#Channel 1: Range: 50 mV/div Offset: 0 V Sample Mode: Average
#Channel 2: Range: 500 mV/div Offset: -8.35 V Sample Mode: Average
#Power Supplies: OFF
#Positive Supply: Rdy
#Voltage: 1 V
#Negative Supply: Rdy
#Voltage: -1 V

Time (s),Channel 1 (V),Channel 2 (V)
-0.0005218195787831514,0.05835686181563567,7.219780332168577
-0.0005216895787831514,0.05869510371271359,7.231088762653673
-0.0005215595787831514,0.05768037802147984,7.234858239482039
-0.0005214295787831514,0.05835686181563567,7.24239719313877
-0.0005212995787831514,0.05835686181563567,7.249936146795497
-0.0005211695787831514,0.05768037802148014,7.249936146795501
-0.0005210395787831513,0.05632741043316818,7.25370562362387
-0.0005209095787831514,0.05632741043316787,7.261244577280602
-0.0005207795787831514,0.05565092663901235,7.272553007765693
-0.0005206495787831514,0.05565092663901235,7.27632248459406
-0.0005205195787831514,0.05429795905070067,7.287630915079156
-0.0005203895787831514,0.05565092663901235,7.291400391907521
-0.0005202595787831514,0.05429795905070067,7.302708822392617
-0.0005201295787831514,0.05429795905070067,7.310247776049344
-0.0005199995787831514,0.05328323335946739,7.314017252877711
-0.0005198695787831513,0.05362147525654484,7.317786729706086
-0.0005197395787831514,0.05362147525654484,7.33286463701954
-0.0005196095787831514,0.05395971715362276,7.329095160191175
-0.0005194795787831514,0.05362147525654484,7.33286463701954
-0.0005193495787831514,0.05226850766823318,7.340403590676272
-0.0005192195787831514,0.05159202387407735,7.351712021161368
-0.0005190895787831514,0.05159202387407735,7.359250974818095
-0.0005189595787831514,0.05125378197699959,7.366789928474826
-0.0005188295787831513,0.05091554007992137,7.37809835895993
-0.0005186995787831514,0.05057729818284361,7.385637312616662
-0.0005185695787831514,0.05057729818284361,7.396945743101753
-0.0005184395787831514,0.05057729818284361,7.396945743101753
-0.0005183095787831514,0.04990081438868776,7.404484696758484
-0.0005181795787831514,0.05057729818284361,7.419562604071945
-0.0005180495787831514,0.04990081438868807,7.419562604071945
-0.0005179195787831514,0.04854784680037672,7.430871034557037
-0.0005177895787831513,0.04854784680037595,7.438409988213775
-0.0005176595787831514,0.04820960490329804,7.44217946504214
-0.0005175295787831514,0.04787136300622027,7.445948941870504
-0.0005173995787831514,0.04820960490329819,7.449718418698869
-0.0005172695787831514,0.04685663731498653,7.461026849183965
-0.0005171395787831514,0.04753312110914236,7.464796326012331
-0.0005170095787831514,0.04685663731498653,7.472335279669062
-0.0005168795787831514,0.04685663731498653,7.483643710154153
-0.0005167495787831513,0.04651839541790815,7.487413186982527
-0.0005166195787831514,0.04550366972667486,7.494952140639258
-0.0005164895787831514,0.04550366972667486,7.502491094295985
-0.0005163595787831514,0.04448894403544111,7.506260571124351
-0.0005162295787831514,0.0441507021383632,7.513799524781081
-0.0005160995787831514,0.04347421834420737,7.525107955266178
-0.0005159695787831514,0.04381246024128528,7.532646908922909
-0.0005158395787831514,0.04347421834420752,7.536416385751273
-0.0005157095787831514,0.04347421834420737,7.547724816236365
-0.0005155795787831513,0.04245949265297393,7.555263769893105
-0.0005154495787831514,0.0431359764471296,7.562802723549835
-0.0005153195787831514,0.04347421834420737,7.566572200378198
-0.0005151895787831514,0.04178300885881778,7.570341677206564
-0.0005150595787831514,0.04212125075589571,7.574111154034929
-0.0005149295787831514,0.04144476696173986,7.585419584520025
-0.0005147995787831514,0.04009179937342882,7.592958538176752
-0.0005146695787831514,0.04043004127050596,7.604266968661847
-0.0005145395787831513,0.03941531557927253,7.619344875975316
-0.0005144095787831514,0.03975355747635013,7.623114352803682
-0.0005142795787831514,0.03941531557927237,7.626883829632045
-0.0005141495787831514,0.03873883178511654,7.630653306460411
-0.0005140195787831514,0.03873883178511654,7.641961736945507
-0.0005138895787831514,0.03806234799096071,7.649500690602237
-0.0005137595787831514,0.03806234799096071,7.657039644258965
-0.0005136295787831514,0.03806234799096071,7.664578597915696
-0.0005134995787831513,0.03670938040264966,7.672117551572429
-0.0005133695787831514,0.03806234799095994,7.66834807474407
-0.0005132395787831514,0.03637113850557112,7.679656505229161
-0.0005131095787831514,0.03704762229972695,7.683425982057527
-0.0005129795787831514,0.03637113850557112,7.690964935714257
-0.0005128495787831514,0.03637113850557112,7.694734412542623
-0.0005127195787831514,0.03366520332894779,7.706042843027719
-0.0005125895787831514,0.03400344522602557,7.713581796684447
-0.0005124595787831514,0.03467992902018124,7.728659703997905
-0.0005123295787831514,0.03265047763771405,7.732429180826284
-0.0005121995787831514,0.03265047763771405,7.747507088139739
-0.0005120695787831514,0.03298871953479196,7.758815518624836
-0.0005119395787831514,0.03231223574063613,7.762584995453201
-0.0005118095787831514,0.0316357519464803,7.770123949109932
-0.0005116795787831514,0.03197399384355822,7.781432379595028
-0.0005115495787831514,0.03062102625524717,7.788971333251755
-0.0005114195787831514,0.03028278435816879,7.80027976373685
-0.0005112895787831513,0.03028278435816879,7.804049240565222
-0.0005111595787831514,0.03062102625524624,7.80781871739359
-0.0005110295787831514,0.02994454246109072,7.815357671050317
-0.0005108995787831514,0.02994454246109072,7.826666101535413
-0.0005107695787831514,0.02926805866693489,7.837974532020509
-0.0005106395787831514,0.02926805866693489,7.84551348567724
-0.0005105095787831514,0.02791509107862384,7.849282962505605
-0.0005103795787831514,0.02859157487277875,7.860591392990697
-0.0005102495787831513,0.02825333297570053,7.864360869819073
-0.0005101195787831514,0.02690036538738963,7.875669300304164
-0.0005099895787831514,0.02723860728446739,7.875669300304164
-0.0005098595787831514,0.0252091559019999,7.890747207617625
-0.0005097295787831514,0.0252091559019999,7.894516684445991
-0.0005095995787831514,0.0252091559019999,7.913364068587819
-0.0005094695787831514,0.0252091559019999,7.913364068587819
-0.0005093395787831514,0.02351794641661108,7.924672499072909
-0.0005092095787831513,0.02385618831368808,7.935980929558014
-0.0005090795787831514,0.02351794641661016,7.943519883214746
-0.0005089495787831514,0.0231797045195324,7.951058836871473
-0.0005088195787831514,0.0231797045195324,7.962367267356569
-0.0005086895787831514,0.02250322072537657,7.962367267356569
-0.0005085595787831514,0.02182673693122073,7.9699062210133
-0.0005084295787831514,0.02148849503414282,7.981214651498396
-0.0005082995787831514,0.02115025313706505,7.992523081983487
-0.0005081695787831514,0.02013552744583161,8.000062035640219
-0.0005080395787831513,0.01945904365167532,8.003831512468592
-0.0005079095787831514,0.01945904365167532,8.011370466125319
-0.0005077795787831514,0.01844431796044157,8.022678896610417
-0.0005076495787831514,0.01912080175459741,8.030217850267148
-0.0005075195787831514,0.01878255985751949,8.041526280752244
-0.0005073895787831514,0.01709135037212991,8.056604188065705
-0.0005072595787831514,0.01742959226920767,8.064143141722433
-0.0005071295787831514,0.01742959226920782,8.0679126185508
-0.0005069995787831513,0.01641486657797408,8.07168209537917
-0.0005068695787831514,0.01641486657797408,8.079221049035903
-0.0005067395787831514,0.01641486657797408,8.090529479520994
-0.0005066095787831514,0.01607662468089616,8.098068433177724
-0.0005064795787831514,0.01573838278381824,8.10183791000609
-0.0005063495787831514,0.01540014088674033,8.120685294147918
-0.0005062195787831514,0.01404717329842928,8.124454770976282
-0.0005060895787831514,0.01472365709258419,8.139532678289738
-0.0005059595787831513,0.01370893140135075,8.143302155118116
-0.0005058295787831514,0.01370893140135044,8.15461058560321
-0.0005056995787831514,0.01303244760719491,8.162149539259937
-0.0005055695787831514,0.012694205710117,8.169688492916668
-0.0005054395787831514,0.01235596381303908,8.173457969745034
-0.0005053095787831514,0.01201772191596117,8.18476640023013
-0.0005051795787831514,0.01201772191596117,8.188535877058495
-0.0005050495787831514,0.01032651243057235,8.196074830715222
-0.0005049195787831513,0.01066475432764919,8.203613784371958
-0.0005047895787831514,0.009988270533493363,8.207383261200331
-0.0005046595787831514,0.009311786739337836,8.222461168513785
-0.0005045295787831514,0.0106647543276495,8.233769598998881
-0.0005043995787831514,0.009311786739337836,8.237539075827247
-0.0005042695787831514,0.009311786739337836,8.241308552655612
-0.0005041395787831514,0.008635302945182005,8.248847506312343
-0.0005040095787831514,0.008973544842259767,8.260155936797434
-0.0005038795787831514,0.008635302945182159,8.260155936797439
-0.0005037495787831513,0.007620577253948103,8.27146436728254
-0.0005036195787831514,0.007282335356870341,8.282772797767631
-0.0005034895787831514,0.007282335356870341,8.282772797767631
-0.0005033595787831514,0.006267609665636592,8.294081228252727
-0.0005032295787831514,0.006267609665636592,8.30162018190946
-0.0005030995787831514,0.00559112587148076,8.30915913556619
-0.0005029695787831514,0.005252883974402997,8.316698089222918
-0.0005028395787831514,0.004576400180247319,8.324237042879648
-0.0005027095787831513,0.003899916386090718,8.33177599653639
-0.0005025795787831514,0.002885190694856816,8.346853903849851
-0.0005024495787831514,0.001532223106545767,8.361931811163306
-0.0005023195787831514,0.001870465003623683,8.369470764820036
-0.0005021895787831514,0.002208706900701599,8.380779195305132
-0.0005020595787831514,0.001193981209467851,8.388318148961863
-0.0005019295787831514,0.0008557393123900883,8.399626579446956
-0.0005017995787831514,0.0001792555182344098,8.407165533103688
-0.0005016695787831513,0.000517497415311557,8.410935009932061
-0.0005015395787831514,-0.0004972282759218837,8.418473963588793
-0.0005014095787831514,-0.000835470172999646,8.429782394073884
-0.0005012795787831514,-0.001173712070077562,8.44109082455898
-0.0005011495787831514,-0.000835470172999646,8.452399255044076
-0.0005010195787831514,-0.001850195864233394,8.459938208700807
-0.0005008895787831514,-0.001511953967155478,8.467477162357538
-0.0005007595787831514,-0.002526679658388765,8.475016116014265
-0.0005006295787831513,-0.001850195864233702,8.478785592842636
-0.0005004995787831513,-0.002526679658389226,8.482555069671005
-0.0005003695787831514,-0.002526679658389226,8.493863500156097
-0.0005002395787831514,-0.003879647246700891,8.501402453812828
-0.0005001095787831514,-0.003879647246700891,8.512710884297924
-0.0004999795787831514,-0.004556131040856723,8.520249837954655
-0.0004998495787831514,-0.005232614835012556,8.531558268439751
-0.0004997195787831514,-0.004894372937934792,8.539097222096478
-0.0004995895787831514,-0.005909098629167926,8.546636175753209
-0.0004994595787831513,-0.005570856732090471,8.557944606238314
-0.0004993295787831514,-0.005570856732091241,8.569253036723405
-0.0004991995787831514,-0.007262066217480052,8.569253036723405
-0.0004990695787831514,-0.006923824320402136,8.580561467208501
-0.0004989395787831514,-0.008276791908713801,8.584330944036868
-0.0004988095787831514,-0.008276791908713801,8.599408851350329
-0.0004986795787831514,-0.008615033805791561,8.595639374521966
-0.0004985495787831514,-0.008953275702869478,8.606947805007055
-0.0004984195787831513,-0.009291517599947704,8.61825623549216
-0.0004982895787831514,-0.00962975949702608,8.625795189148892
-0.0004981595787831514,-0.01098272708533713,8.637103619633983
-0.0004980295787831514,-0.01098272708533713,8.644642573290714
-0.0004978995787831514,-0.0103062432911813,8.65595100377581
-0.0004977695787831514,-0.01165921087949296,8.663489957432541
-0.0004976395787831514,-0.01267393657072625,8.667259434260904
-0.0004975095787831514,-0.01335042036488224,8.678567864745999
-0.0004973795787831513,-0.01301217846780524,8.693645772059471
-0.0004972495787831514,-0.01436514605611583,8.704954202544563
-0.0004971195787831514,-0.01335042036488254,8.708723679372927
-0.0004969895787831514,-0.01402690415903837,8.720032109858023
-0.0004968595787831514,-0.01368866226196046,8.727571063514754
-0.0004967295787831514,-0.01436514605611629,8.731340540343119
-0.0004965995787831514,-0.01571811364442795,8.742648970828215
-0.0004964695787831514,-0.01571811364442795,8.742648970828215
-0.0004963395787831514,-0.01504162985027243,8.746418447656579
-0.0004962095787831513,-0.01639459743858394,8.75772687814168
-0.0004960795787831514,-0.0167328393356617,8.765265831798407
-0.0004959495787831514,-0.01707108123273962,8.780343739111871
-0.0004958195787831514,-0.01808580692397337,8.776574262283505
-0.0004956895787831514,-0.01707108123273962,8.787882692768601
-0.0004955595787831514,-0.01808580692397337,8.795421646425332
-0.0004954295787831514,-0.01808580692397337,8.806730076910423
-0.0004952995787831514,-0.01876229071812889,8.806730076910428
-0.0004951695787831513,-0.01910053261520758,8.821807984223895
-0.0004950395787831514,-0.02011525830644086,8.833116414708988
-0.0004949095787831514,-0.02011525830644086,8.836885891537351
-0.0004947795787831514,-0.0207917421005967,8.848194322022447
-0.0004946495787831514,-0.0207917421005967,8.851963798850813
-0.0004945195787831514,-0.02282119348306419,8.863272229335909
-0.0004943895787831514,-0.02045350020351986,8.870811182992638
-0.0004942595787831514,-0.02214470968890759,8.878350136649368
-0.0004941295787831513,-0.02180646779183075,8.882119613477743
-0.0004939995787831514,-0.02248295158598674,8.893428043962837
-0.0004938695787831514,-0.02349767727722003,8.900966997619564
-0.0004937395787831514,-0.02383591917429794,8.908505951276295
-0.0004936095787831514,-0.0251888867626096,8.916044904933026
-0.0004934795787831514,-0.02417416107137586,8.923583858589756
-0.0004933495787831514,-0.0251888867626096,8.934892289074853
-0.0004932195787831514,-0.02586537055676513,8.938661765903216
-0.0004930895787831513,-0.02552712865968783,8.946200719559952
-0.0004929595787831514,-0.02620361245384366,8.953739673216687
-0.0004928295787831514,-0.02688009624799919,8.968817580530143
-0.0004926995787831514,-0.02789482193923293,8.972587057358508
-0.0004925695787831514,-0.02823306383631085,8.98766496467197
-0.0004924395787831514,-0.0292477895275446,8.991434441500335
-0.0004923095787831514,-0.0292477895275446,8.998973395157066
-0.0004921795787831514,-0.02958603142462236,9.002742871985429
-0.0004920495787831514,-0.03026251521877804,9.017820779298885
-0.0004919195787831513,-0.02924778952754491,9.025359732955627
-0.0004917895787831514,-0.02992427332170043,9.032898686612359
-0.0004916595787831514,-0.02992427332170043,9.04420711709745
-0.0004915295787831514,-0.03026251521877835,9.051746070754181
-0.0004913995787831514,-0.03093899901293418,9.055515547582548
-0.0004912695787831514,-0.03195372470416792,9.066823978067644
-0.0004911395787831514,-0.03195372470416792,9.074362931724371
-0.0004910095787831514,-0.03263020849832346,9.081901885381102
-0.0004908795787831513,-0.03296845039540137,9.093210315866205
-0.0004907495787831514,-0.032291966601246,9.100749269522934
-0.0004906195787831514,-0.03263020849832377,9.104518746351298
-0.0004904895787831514,-0.03398317608663542,9.115827176836394
-0.0004903595787831514,-0.03398317608663542,9.119596653664759
-0.0004902295787831514,-0.03533614367494708,9.130905084149855
-0.0004900995787831514,-0.03533614367494708,9.134674560978219
-0.0004899695787831514,-0.03533614367494708,9.142213514634948
-0.0004898395787831513,-0.03601262746910307,9.153521945120051
-0.0004897095787831514,-0.036350869366181,9.161060898776784
-0.0004895795787831514,-0.03668911126325876,9.168599852433511
-0.0004894495787831514,-0.0377038369544925,9.179908282918607
-0.0004893195787831514,-0.03702735316033667,9.183677759746972
-0.0004891895787831514,-0.03838032074864833,9.187447236575338
-0.0004890595787831514,-0.03804207885157042,9.198755667060434
-0.0004889295787831514,-0.03871856264572594,9.202525143888797
-0.0004887995787831513,-0.03838032074864864,9.20629462071717
-0.0004886695787831513,-0.03905680454280432,9.217603051202262
-0.0004885395787831514,-0.03939504643988208,9.221372528030626
-0.0004884095787831514,-0.03939504643988208,9.232680958515722
-0.0004882795787831513,-0.04007153023403791,9.240219912172453
-0.0004881495787831513,-0.04040977213111584,9.247758865829184
-0.0004880195787831514,-0.04074801402819375,9.259067296314281
-0.0004878895787831514,-0.04142449782234928,9.266606249971009
-0.0004877595787831514,-0.04142449782234958,9.270375726799376
-0.0004876295787831513,-0.04277746541066139,9.281684157284479
-0.0004874995787831513,-0.04311570730773946,9.292992587769573
-0.0004873695787831513,-0.04379219110189499,9.300531541426301
-0.0004872395787831513,-0.0441304329989729,9.315609448739762
-0.0004871095787831513,-0.04446867489605082,9.323148402396493
-0.0004869795787831514,-0.04379219110189499,9.326917879224858
-0.0004868495787831514,-0.04446867489605051,9.334456832881585
-0.0004867195787831514,-0.04615988438143964,9.341995786538316
-0.0004865895787831513,-0.04582164248436264,9.349534740195054
-0.0004864595787831513,-0.04615988438144041,9.353304217023421
-0.0004863295787831513,-0.04615988438144041,9.360843170680148
-0.0004861995787831513,-0.04649812627851832,9.368382124336879
-0.0004860695787831513,-0.04717461007267415,9.37592107799361
-0.0004859395787831514,-0.04785109386682998,9.379690554821975
-0.0004858095787831514,-0.04818933576390774,9.390998985307066
-0.0004856795787831514,-0.04751285196975237,9.398537938963798
-0.0004855495787831513,-0.04886581955806404,9.402307415792171
-0.0004854195787831513,-0.0495423033522191,9.409846369448905
-0.0004852895787831513,-0.04852757766098581,9.42492427676236
-0.0004851595787831513,-0.04852757766098581,9.428693753590725
-0.0004850295787831513,-0.04988054524929748,9.428693753590725
-0.0004848995787831514,-0.0502187871463754,9.440002184075823
-0.0004847695787831514,-0.05055702904345331,9.447541137732554
-0.0004846395787831514,-0.05021878714637555,9.451310614560917
-0.0004845095787831514,-0.05089527094053092,9.46261904504601
-0.0004843795787831513,-0.05190999663176513,9.470157998702748
-0.0004842495787831513,-0.05224823852884289,9.473927475531111
-0.0004841195787831513,-0.05292472232299873,9.489005382844573
-0.0004839895787831513,-0.05360120611715456,9.496544336501303
-0.0004838595787831513,-0.05360120611715456,9.504083290158034
-0.0004837295787831514,-0.05360120611715456,9.511622243814765
-0.0004835995787831514,-0.05292472232299904,9.519161197471492
-0.0004834695787831514,-0.05393944801423202,9.522930674299859
-0.0004833395787831513,-0.05495417370546592,9.530469627956593
-0.0004832095787831513,-0.0542776899113107,9.534239104784964
-0.0004830795787831513,-0.05495417370546622,9.545547535270055
-0.0004829495787831513,-0.05427768991131039,9.545547535270055
-0.0004828195787831513,-0.05495417370546622,9.54931701209842
-0.0004826895787831514,-0.05461593180838831,9.564394919411882
-0.0004825595787831514,-0.05664538319085487,9.568164396240245
-0.0004824295787831514,-0.05596889939670027,9.568164396240247
-0.0004822995787831513,-0.0563071412937785,9.571933873068616
-0.0004821695787831513,-0.05766010888209017,9.579472826725345
-0.0004820395787831513,-0.05901307647040122,9.583242303553709
-0.0004819095787831513,-0.05766010888208956,9.59832021086717
-0.0004817795787831513,-0.05901307647040122,9.605859164523901
-0.0004816495787831514,-0.05901307647040122,9.613398118180632
-0.0004815195787831514,-0.05935131836747898,9.617167595008995
-0.0004813895787831514,-0.06070428595579017,9.62847602549409
-0.0004812595787831513,-0.06036604405871318,9.632245502322464
-0.0004811295787831513,-0.06104252785286872,9.639784455979198
-0.0004809995787831513,-0.06104252785286872,9.654862363292652
-0.0004808695787831513,-0.06138076974994663,9.654862363292652
